\relax 
\providecommand\hyper@newdestlabel[2]{}
\providecommand\HyperFirstAtBeginDocument{\AtBeginDocument}
\HyperFirstAtBeginDocument{\ifx\hyper@anchor\@undefined
\global\let\oldcontentsline\contentsline
\gdef\contentsline#1#2#3#4{\oldcontentsline{#1}{#2}{#3}}
\global\let\oldnewlabel\newlabel
\gdef\newlabel#1#2{\newlabelxx{#1}#2}
\gdef\newlabelxx#1#2#3#4#5#6{\oldnewlabel{#1}{{#2}{#3}}}
\AtEndDocument{\ifx\hyper@anchor\@undefined
\let\contentsline\oldcontentsline
\let\newlabel\oldnewlabel
\fi}
\fi}
\global\let\hyper@last\relax 
\gdef\HyperFirstAtBeginDocument#1{#1}
\providecommand*\HyPL@Entry[1]{}
\HyPL@Entry{0<</S/r>>}
\@writefile{toc}{\vspace {-0.5cm}}
\@writefile{lof}{\vspace {-0.5cm}}
\@writefile{lot}{\vspace {-0.5cm}}
\@writefile{toc}{\nobreakspace {}\hfill \textnormal  {หน้า\\}\par }
\@writefile{lot}{\nobreakspace {}\hfill \textnormal  {หน้า}\par }
\@writefile{lof}{\nobreakspace {}\hfill \textnormal  {หน้า}\par }
\select@language {thai}
\@writefile{toc}{\select@language {thai}}
\@writefile{lof}{\select@language {thai}}
\@writefile{lot}{\select@language {thai}}
\@writefile{toc}{\contheading  }
\HyPL@Entry{4<</P(\376\377\000\050\0001\000\051)>>}
\@writefile{toc}{\contentsline {section}{บทคัดย่อ}{(1)}{table.caption.2}\protected@file@percent }
\@writefile{toc}{\vspace {\baselineskip }}
\HyPL@Entry{5<</P(\376\377\000\050\0002\000\051)>>}
\@writefile{toc}{\contentsline {section}{Abstract}{(2)}{table.caption.3}\protected@file@percent }
\@writefile{toc}{\vspace {\baselineskip }}
\HyPL@Entry{6<</P(\376\377\000\050\0003\000\051)>>}
\@writefile{toc}{\contentsline {section}{กิตติกรรมประกาศ}{(3)}{chapter*.4}\protected@file@percent }
\@writefile{toc}{\vspace {\baselineskip }}
\HyPL@Entry{7<</P(\376\377\000\050\0004\000\051)>>}
\@writefile{toc}{\contentsline {section}{สารบัญ}{(4)}{section*.5}\protected@file@percent }
\HyPL@Entry{8<</P(\376\377\000\050\0005\000\051)>>}
\HyPL@Entry{9<</P(\376\377\000\050\0006\000\051)>>}
\HyPL@Entry{10<</P(\376\377\000\050\0007\000\051)>>}
\@writefile{toc}{\contentsline {section}{สารบัญรูป}{(7)}{section*.7}\protected@file@percent }
\@writefile{toc}{\vspace {\baselineskip }}
\HyPL@Entry{11<</P(\376\377\000\050\0008\000\051)>>}
\HyPL@Entry{12<</P(\376\377\000\050\0009\000\051)>>}
\@writefile{toc}{\contentsline {section}{สารบัญตาราง}{(9)}{section*.9}\protected@file@percent }
\@writefile{toc}{\vspace {\baselineskip }}
\HyPL@Entry{13<</S/D>>}
\@writefile{toc}{\addvspace {15\p@ }}
\@writefile{toc}{\contentsline {chapter}{\numberline {1}บทนำ}{1}{chapter.1}\protected@file@percent }
\@writefile{lof}{\addvspace {10\p@ }}
\@writefile{lot}{\addvspace {10\p@ }}
\newlabel{intro}{{1}{1}{บทนำ}{chapter.1}{}}
\@writefile{toc}{\contentsline {section}{\numberline {1.1}ที่มาและความสำคัญ}{1}{section.1.1}\protected@file@percent }
\@writefile{toc}{\contentsline {section}{\numberline {1.2}วัตถุประสงค์}{2}{section.1.2}\protected@file@percent }
\@writefile{toc}{\contentsline {section}{\numberline {1.3}ขอบเขตการดำเนินงาน}{2}{section.1.3}\protected@file@percent }
\@writefile{toc}{\contentsline {section}{\numberline {1.4}ขั้นตอนการดำเนินงาน}{3}{section.1.4}\protected@file@percent }
\@writefile{toc}{\contentsline {section}{\numberline {1.5}ผลที่คาดว่าจะได้รับ}{4}{section.1.5}\protected@file@percent }
\@writefile{toc}{\contentsline {section}{\numberline {1.6}ตารางการดำเนินงาน}{5}{section.1.6}\protected@file@percent }
\@writefile{lot}{\contentsline {table}{\numberline {1.1}{\ignorespaces ตารางการดำเนินโครงงาน\relax }}{5}{table.caption.12}\protected@file@percent }
\providecommand*\caption@xref[2]{\@setref\relax\@undefined{#1}}
\newlabel{fig:table}{{1.1}{5}{ตารางการดำเนินโครงงาน\relax }{table.caption.12}{}}
\@writefile{lot}{\contentsline {table}{\numberline {1.2}{\ignorespaces ตารางการดำเนินโครงงาน (ต่อ)\relax }}{6}{table.caption.14}\protected@file@percent }
\newlabel{fig:table2}{{1.2}{6}{ตารางการดำเนินโครงงาน (ต่อ)\relax }{table.caption.14}{}}
\citation{unitime}
\@writefile{toc}{\addvspace {15\p@ }}
\@writefile{toc}{\contentsline {chapter}{\numberline {2}ทฤษฎีและงานการศึกษาที่เกี่ยวข้อง}{7}{chapter.2}\protected@file@percent }
\@writefile{lof}{\addvspace {10\p@ }}
\@writefile{lot}{\addvspace {10\p@ }}
\newlabel{literature}{{2}{7}{ทฤษฎีและงานการศึกษาที่เกี่ยวข้อง}{chapter.2}{}}
\@writefile{toc}{\contentsline {section}{\numberline {2.1}University Timetabling}{7}{section.2.1}\protected@file@percent }
\newlabel{UniTime}{{2.1}{7}{University Timetabling}{section.2.1}{}}
\@writefile{lof}{\contentsline {figure}{\numberline {2.1}{\ignorespaces UniTime}}{7}{figure.caption.15}\protected@file@percent }
\newlabel{fig:unitime_logo}{{2.1}{7}{UniTime}{figure.caption.15}{}}
\citation{constraint_solver_library}
\citation{itc2007}
\citation{threetrack_itc2007}
\citation{threetrack_itc2007}
\citation{threetrack_itc2007}
\@writefile{toc}{\contentsline {subsection}{\numberline {2.1.1}ไลบรารีตัวแก้ไขข้อจำกัด (Constraint Solver Library)}{8}{subsection.2.1.1}\protected@file@percent }
\@writefile{toc}{\contentsline {subsection}{\numberline {2.1.2}การวิจัย}{9}{subsection.2.1.2}\protected@file@percent }
\citation{online_demo}
\@writefile{toc}{\contentsline {subsection}{\numberline {2.1.3}ตัวอย่างออนไลน์}{10}{subsection.2.1.3}\protected@file@percent }
\@writefile{lof}{\contentsline {figure}{\numberline {2.2}{\ignorespaces UniTime - Online Demo}}{10}{figure.caption.16}\protected@file@percent }
\newlabel{fig:unitime_demo}{{2.2}{10}{UniTime - Online Demo}{figure.caption.16}{}}
\citation{android}
\@writefile{toc}{\contentsline {section}{\numberline {2.2}แอนดรอยด์ (Android)}{12}{section.2.2}\protected@file@percent }
\newlabel{Android}{{2.2}{12}{แอนดรอยด์ (Android)}{section.2.2}{}}
\@writefile{lof}{\contentsline {figure}{\numberline {2.3}{\ignorespaces Android}}{12}{figure.caption.17}\protected@file@percent }
\newlabel{fig:android_logo}{{2.3}{12}{Android}{figure.caption.17}{}}
\citation{android_studio}
\@writefile{toc}{\contentsline {section}{\numberline {2.3}Android Studio}{13}{section.2.3}\protected@file@percent }
\newlabel{Android Studio}{{2.3}{13}{Android Studio}{section.2.3}{}}
\@writefile{lof}{\contentsline {figure}{\numberline {2.4}{\ignorespaces Android Studio}}{13}{figure.caption.18}\protected@file@percent }
\newlabel{fig:android_studio_logo}{{2.4}{13}{Android Studio}{figure.caption.18}{}}
\citation{java}
\@writefile{toc}{\contentsline {section}{\numberline {2.4}ภาษาจาวา (JAVA)}{14}{section.2.4}\protected@file@percent }
\newlabel{JAVA}{{2.4}{14}{ภาษาจาวา (JAVA)}{section.2.4}{}}
\citation{iOS}
\@writefile{toc}{\contentsline {section}{\numberline {2.5}ไอโอเอส (iOS)}{15}{section.2.5}\protected@file@percent }
\newlabel{iOS}{{2.5}{15}{ไอโอเอส (iOS)}{section.2.5}{}}
\@writefile{lof}{\contentsline {figure}{\numberline {2.5}{\ignorespaces iOS}}{15}{figure.caption.19}\protected@file@percent }
\newlabel{fig:ios_logo}{{2.5}{15}{iOS}{figure.caption.19}{}}
\citation{sqlite}
\@writefile{toc}{\contentsline {section}{\numberline {2.6}SQLite (Database)}{17}{section.2.6}\protected@file@percent }
\newlabel{sqlite}{{2.6}{17}{SQLite (Database)}{section.2.6}{}}
\@writefile{lof}{\contentsline {figure}{\numberline {2.6}{\ignorespaces SQLite Database}}{17}{figure.caption.20}\protected@file@percent }
\newlabel{fig:sqlite}{{2.6}{17}{SQLite Database}{figure.caption.20}{}}
\citation{dart}
\@writefile{toc}{\contentsline {section}{\numberline {2.7}Dart}{18}{section.2.7}\protected@file@percent }
\newlabel{Dart}{{2.7}{18}{Dart}{section.2.7}{}}
\@writefile{lof}{\contentsline {figure}{\numberline {2.7}{\ignorespaces Dart}}{18}{figure.caption.21}\protected@file@percent }
\newlabel{fig:dart_logo}{{2.7}{18}{Dart}{figure.caption.21}{}}
\@writefile{lof}{\contentsline {figure}{\numberline {2.8}{\ignorespaces Platform ของ Dart\relax }}{19}{figure.caption.22}\protected@file@percent }
\newlabel{fig:about_dart}{{2.8}{19}{Platform ของ Dart\relax }{figure.caption.22}{}}
\citation{flutter}
\@writefile{toc}{\contentsline {section}{\numberline {2.8}Flutter}{20}{section.2.8}\protected@file@percent }
\newlabel{Flutter}{{2.8}{20}{Flutter}{section.2.8}{}}
\@writefile{lof}{\contentsline {figure}{\numberline {2.9}{\ignorespaces Flutter}}{20}{figure.caption.23}\protected@file@percent }
\newlabel{fig:flutter_logo}{{2.9}{20}{Flutter}{figure.caption.23}{}}
\@writefile{toc}{\contentsline {subsection}{\numberline {2.8.1}Architectural overview: platform channels}{20}{subsection.2.8.1}\protected@file@percent }
\@writefile{lof}{\contentsline {figure}{\numberline {2.10}{\ignorespaces Architectural Overview: platform channels ของ Flutter}}{20}{figure.caption.24}\protected@file@percent }
\newlabel{fig:flutter_architecture}{{2.10}{20}{Architectural Overview: platform channels ของ Flutter}{figure.caption.24}{}}
\@writefile{toc}{\addvspace {15\p@ }}
\@writefile{toc}{\contentsline {chapter}{\numberline {3}การดำเนินงาน / วิธีการวิจัย}{22}{chapter.3}\protected@file@percent }
\@writefile{lof}{\addvspace {10\p@ }}
\@writefile{lot}{\addvspace {10\p@ }}
\newlabel{method}{{3}{22}{การดำเนินงาน / วิธีการวิจัย}{chapter.3}{}}
\@writefile{toc}{\contentsline {section}{\numberline {3.1}การออกแบบส่วนต่อประสานกับผู้ใช้ (user interface, UI) ของแอปพลิเคชัน}{22}{section.3.1}\protected@file@percent }
\newlabel{user_ui_designing}{{3.1}{22}{การออกแบบส่วนต่อประสานกับผู้ใช้ (user interface, UI) ของแอปพลิเคชัน}{section.3.1}{}}
\@writefile{lof}{\contentsline {figure}{\numberline {3.1}{\ignorespaces ออกแบบหน้าแรกของแอปพลิเคชัน\relax }}{22}{figure.caption.25}\protected@file@percent }
\newlabel{fig:login_ui, register_ui}{{3.1}{22}{ออกแบบหน้าแรกของแอปพลิเคชัน\relax }{figure.caption.25}{}}
\@writefile{lof}{\contentsline {figure}{\numberline {3.2}{\ignorespaces ออกแบบหน้าต่างสำหรับแสดงรายวิชาทั้งหมดจากอินพุตของผู้ใช้\relax }}{23}{figure.caption.26}\protected@file@percent }
\newlabel{fig:incompleted_subject_ui, completed_subject_ui, all_subject_ui}{{3.2}{23}{ออกแบบหน้าต่างสำหรับแสดงรายวิชาทั้งหมดจากอินพุตของผู้ใช้\relax }{figure.caption.26}{}}
\@writefile{lof}{\contentsline {figure}{\numberline {3.3}{\ignorespaces ออกแบบหน้าต่างสำหรับการจัดตารางเวลาเรียน\relax }}{23}{figure.caption.27}\protected@file@percent }
\newlabel{fig:timetabling_ui, timetabling_finish_ui}{{3.3}{23}{ออกแบบหน้าต่างสำหรับการจัดตารางเวลาเรียน\relax }{figure.caption.27}{}}
\@writefile{lof}{\contentsline {figure}{\numberline {3.4}{\ignorespaces ออกแบบหน้าต่างสำหรับตารางปัจจุบัน\relax }}{24}{figure.caption.28}\protected@file@percent }
\newlabel{fig:current_timetable_ui}{{3.4}{24}{ออกแบบหน้าต่างสำหรับตารางปัจจุบัน\relax }{figure.caption.28}{}}
\@writefile{toc}{\contentsline {section}{\numberline {3.2}ศึกษาภาษา Dart และ Flutter สำหรับใช้ในการสร้างแอปพลิเคชัน}{24}{section.3.2}\protected@file@percent }
\newlabel{dart_flutter}{{3.2}{24}{ศึกษาภาษา Dart และ Flutter สำหรับใช้ในการสร้างแอปพลิเคชัน}{section.3.2}{}}
\@writefile{lof}{\contentsline {figure}{\numberline {3.5}{\ignorespaces Plugin Dart และ Flutter ของโปรแกรม Android Studio\relax }}{25}{figure.caption.29}\protected@file@percent }
\newlabel{fig:dart_plugin, flutter_plugin}{{3.5}{25}{Plugin Dart และ Flutter ของโปรแกรม Android Studio\relax }{figure.caption.29}{}}
\@writefile{toc}{\contentsline {section}{\numberline {3.3}ศึกษาการ Implement UniTime เพื่อดึงตัว Solver มาใช้สำหรับการจัดตาราง}{25}{section.3.3}\protected@file@percent }
\newlabel{unitime_implement}{{3.3}{25}{ศึกษาการ Implement UniTime เพื่อดึงตัว Solver มาใช้สำหรับการจัดตาราง}{section.3.3}{}}
\@writefile{lof}{\contentsline {figure}{\numberline {3.6}{\ignorespaces แบบระบบการทำงานของ UniTime\relax }}{25}{figure.caption.30}\protected@file@percent }
\newlabel{fig:system_arch}{{3.6}{25}{แบบระบบการทำงานของ UniTime\relax }{figure.caption.30}{}}
\@writefile{lof}{\contentsline {figure}{\numberline {3.7}{\ignorespaces หน้าเว็บไซต์สำหรับ Server ของ UniTime\relax }}{28}{figure.caption.31}\protected@file@percent }
\newlabel{fig:untime_webapp}{{3.7}{28}{หน้าเว็บไซต์สำหรับ Server ของ UniTime\relax }{figure.caption.31}{}}
\@writefile{toc}{\addvspace {15\p@ }}
\@writefile{toc}{\contentsline {chapter}{\numberline {4}ผลการวิจัยและอภิปรายผล}{29}{chapter.4}\protected@file@percent }
\@writefile{lof}{\addvspace {10\p@ }}
\@writefile{lot}{\addvspace {10\p@ }}
\@writefile{toc}{\contentsline {section}{\numberline {4.1}หน้าแอปพลิเคชันสำหรับการเข้าสู้ระบบ และการสร้างบัญชีผู้ใช้งานใหม่}{29}{section.4.1}\protected@file@percent }
\newlabel{login_section}{{4.1}{29}{หน้าแอปพลิเคชันสำหรับการเข้าสู้ระบบ และการสร้างบัญชีผู้ใช้งานใหม่}{section.4.1}{}}
\@writefile{lof}{\contentsline {figure}{\numberline {4.1}{\ignorespaces หน้าแรกของแอปพลิเคชันสำหรับการเข้าสู่ระบบ และการสร้างบัญชีผู้ใช้งานใหม่\relax }}{29}{figure.caption.32}\protected@file@percent }
\newlabel{fig:login_ui}{{4.1}{29}{หน้าแรกของแอปพลิเคชันสำหรับการเข้าสู่ระบบ และการสร้างบัญชีผู้ใช้งานใหม่\relax }{figure.caption.32}{}}
\@writefile{lof}{\contentsline {figure}{\numberline {4.2}{\ignorespaces หน้าต่างสำหรับการสร้างบัญชีผู้ใช้งานใหม่\relax }}{30}{figure.caption.33}\protected@file@percent }
\newlabel{fig:register_ui}{{4.2}{30}{หน้าต่างสำหรับการสร้างบัญชีผู้ใช้งานใหม่\relax }{figure.caption.33}{}}
\@writefile{toc}{\contentsline {section}{\numberline {4.2}หน้าแอปพลิเคชันสำหรับแสดงข้อมูลรายวิชา}{31}{section.4.2}\protected@file@percent }
\newlabel{allList_section}{{4.2}{31}{หน้าแอปพลิเคชันสำหรับแสดงข้อมูลรายวิชา}{section.4.2}{}}
\@writefile{toc}{\contentsline {subsection}{\numberline {4.2.1}หน้าสำหรับแสดงข้อมูลรายวิชาทั้งหมด}{31}{subsection.4.2.1}\protected@file@percent }
\@writefile{lof}{\contentsline {figure}{\numberline {4.3}{\ignorespaces การทำงานของแอปพลิเคชัน ในส่วนของการแสดงรายชื่อวิชาทั้งหมด\relax }}{31}{figure.caption.34}\protected@file@percent }
\newlabel{fig:all_subject_ui}{{4.3}{31}{การทำงานของแอปพลิเคชัน ในส่วนของการแสดงรายชื่อวิชาทั้งหมด\relax }{figure.caption.34}{}}
\@writefile{lof}{\contentsline {figure}{\numberline {4.4}{\ignorespaces การทำงานของแอปพลิเคชัน ในส่วนของเมนูเพิ่มเติม\relax }}{32}{figure.caption.35}\protected@file@percent }
\newlabel{fig:menu_ui, profile_ui}{{4.4}{32}{การทำงานของแอปพลิเคชัน ในส่วนของเมนูเพิ่มเติม\relax }{figure.caption.35}{}}
\@writefile{toc}{\contentsline {subsection}{\numberline {4.2.2}หน้าสำหรับแสดงข้อมูลรายวิชาที่ผู้ใช้ศึกษาผ่านแล้ว}{33}{subsection.4.2.2}\protected@file@percent }
\@writefile{lof}{\contentsline {figure}{\numberline {4.5}{\ignorespaces การทำงานของแอปพลิเคชัน ในส่วนของการแสดงรายชื่อวิชาที่ผู้ใช้ได้ศึกษาผ่านแล้ว\relax }}{33}{figure.caption.36}\protected@file@percent }
\newlabel{fig:completed_subject_ui}{{4.5}{33}{การทำงานของแอปพลิเคชัน ในส่วนของการแสดงรายชื่อวิชาที่ผู้ใช้ได้ศึกษาผ่านแล้ว\relax }{figure.caption.36}{}}
\@writefile{toc}{\contentsline {subsection}{\numberline {4.2.3}หน้าสำหรับแสดงข้อมูลรายวิชาที่ผู้ใช้ยังศึกษาไม่ผ่าน}{33}{subsection.4.2.3}\protected@file@percent }
\@writefile{lof}{\contentsline {figure}{\numberline {4.6}{\ignorespaces การทำงานของแอปพลิเคชัน ในส่วนของการแสดงรายชื่อวิชาที่ผู้ใช้ยังศึกษาไม่ผ่าน\relax }}{33}{figure.caption.37}\protected@file@percent }
\newlabel{fig:incompleted_subject_ui}{{4.6}{33}{การทำงานของแอปพลิเคชัน ในส่วนของการแสดงรายชื่อวิชาที่ผู้ใช้ยังศึกษาไม่ผ่าน\relax }{figure.caption.37}{}}
\@writefile{toc}{\contentsline {section}{\numberline {4.3}หน้าแอปพลิเคชันสำหรับคำนวณการจัดตารางเรียนจากวิชาเรียน}{34}{section.4.3}\protected@file@percent }
\newlabel{generate_section}{{4.3}{34}{หน้าแอปพลิเคชันสำหรับคำนวณการจัดตารางเรียนจากวิชาเรียน}{section.4.3}{}}
\@writefile{toc}{\contentsline {subsection}{\numberline {4.3.1}ส่วนของการคำนวณความเป็นไปได้ของวิชาที่สามารถลงเรียนได้}{34}{subsection.4.3.1}\protected@file@percent }
\@writefile{lof}{\contentsline {figure}{\numberline {4.7}{\ignorespaces แสดงขั้นตอนการเข้าหน้าจัดตารางเรียน\relax }}{34}{figure.caption.38}\protected@file@percent }
\newlabel{fig:step_timetabling}{{4.7}{34}{แสดงขั้นตอนการเข้าหน้าจัดตารางเรียน\relax }{figure.caption.38}{}}
\@writefile{toc}{\contentsline {subsection}{\numberline {4.3.2}ส่วนของตารางเรียนที่ผู้ใช้จะปรับเปลี่ยนตามความต้องการ}{34}{subsection.4.3.2}\protected@file@percent }
\@writefile{lof}{\contentsline {figure}{\numberline {4.8}{\ignorespaces แสดงขั้นตอนการจัดตารางเรียน\relax }}{35}{figure.caption.39}\protected@file@percent }
\newlabel{fig:finish_timetabling}{{4.8}{35}{แสดงขั้นตอนการจัดตารางเรียน\relax }{figure.caption.39}{}}
\@writefile{lof}{\contentsline {figure}{\numberline {4.9}{\ignorespaces หน้าต่างสำหรับการเพิ่มรายวิชา\relax }}{35}{figure.caption.40}\protected@file@percent }
\newlabel{fig:insert_seri}{{4.9}{35}{หน้าต่างสำหรับการเพิ่มรายวิชา\relax }{figure.caption.40}{}}
\@writefile{toc}{\contentsline {subsection}{\numberline {4.3.3}ส่วนของตารางเรียนทั้งหมดที่ต้องศึกษาตลอดหลักสูตร}{36}{subsection.4.3.3}\protected@file@percent }
\@writefile{lof}{\contentsline {figure}{\numberline {4.10}{\ignorespaces แสดงขั้นตอนการบันทึกตารางทั้งหมด\relax }}{36}{figure.caption.41}\protected@file@percent }
\newlabel{fig:step_saving}{{4.10}{36}{แสดงขั้นตอนการบันทึกตารางทั้งหมด\relax }{figure.caption.41}{}}
\@writefile{toc}{\contentsline {section}{\numberline {4.4}หน้าแอปพลิเคชันสำหรับตารางปัจจุบันที่ผู้ใช้เลือกใช้}{37}{section.4.4}\protected@file@percent }
\@writefile{lof}{\contentsline {figure}{\numberline {4.11}{\ignorespaces การทำงานของแอปพลิเคชัน ในส่วนของการแสดงรูปแบบของตารางทั้งหมดที่ผู้ใช้ได้บันทึกไว้\relax }}{37}{figure.caption.42}\protected@file@percent }
\newlabel{fig:fav_timetable}{{4.11}{37}{การทำงานของแอปพลิเคชัน ในส่วนของการแสดงรูปแบบของตารางทั้งหมดที่ผู้ใช้ได้บันทึกไว้\relax }{figure.caption.42}{}}
\@writefile{toc}{\contentsline {section}{\numberline {4.5}หน้าแอปพลิเคชันสำหรับการส่งออกไฟล์ของตารางเป็น PDF}{38}{section.4.5}\protected@file@percent }
\@writefile{lof}{\contentsline {figure}{\numberline {4.12}{\ignorespaces แสดงขั้นตอนการส่งออกไฟล์เป็น PDF\relax }}{38}{figure.caption.43}\protected@file@percent }
\newlabel{fig:step_export}{{4.12}{38}{แสดงขั้นตอนการส่งออกไฟล์เป็น PDF\relax }{figure.caption.43}{}}
\@writefile{toc}{\contentsline {section}{\numberline {4.6}การออกแบบฐานข้อมูลสำหรับแอปพลิเคชัน}{39}{section.4.6}\protected@file@percent }
\@writefile{lof}{\contentsline {figure}{\numberline {4.13}{\ignorespaces ER Diagram ความสัมพันธ์สำหรับฐานข้อมูลของแอปพลิเคชัน\relax }}{39}{figure.caption.44}\protected@file@percent }
\newlabel{fig:er_diagramDB}{{4.13}{39}{ER Diagram ความสัมพันธ์สำหรับฐานข้อมูลของแอปพลิเคชัน\relax }{figure.caption.44}{}}
\@writefile{lof}{\contentsline {figure}{\numberline {4.14}{\ignorespaces ตารางสำหรับฐานข้อมูลของแอปพลิเคชัน\relax }}{40}{figure.caption.45}\protected@file@percent }
\newlabel{fig:table_DB}{{4.14}{40}{ตารางสำหรับฐานข้อมูลของแอปพลิเคชัน\relax }{figure.caption.45}{}}
\@writefile{lof}{\contentsline {figure}{\numberline {4.15}{\ignorespaces โครงสร้างตาราง Credits\relax }}{40}{figure.caption.46}\protected@file@percent }
\newlabel{fig:table_credits}{{4.15}{40}{โครงสร้างตาราง Credits\relax }{figure.caption.46}{}}
\@writefile{lof}{\contentsline {figure}{\numberline {4.16}{\ignorespaces โครงสร้างตาราง Curriculums\relax }}{41}{figure.caption.47}\protected@file@percent }
\newlabel{fig:table_curr}{{4.16}{41}{โครงสร้างตาราง Curriculums\relax }{figure.caption.47}{}}
\@writefile{lof}{\contentsline {figure}{\numberline {4.17}{\ignorespaces โครงสร้างตาราง Elective\_subjects\relax }}{41}{figure.caption.48}\protected@file@percent }
\newlabel{fig:table_elective}{{4.17}{41}{โครงสร้างตาราง Elective\_subjects\relax }{figure.caption.48}{}}
\@writefile{lof}{\contentsline {figure}{\numberline {4.18}{\ignorespaces โครงสร้างตาราง Sections\relax }}{42}{figure.caption.49}\protected@file@percent }
\newlabel{fig:table_sections}{{4.18}{42}{โครงสร้างตาราง Sections\relax }{figure.caption.49}{}}
\@writefile{lof}{\contentsline {figure}{\numberline {4.19}{\ignorespaces โครงสร้างตาราง Subjects\relax }}{42}{figure.caption.50}\protected@file@percent }
\newlabel{fig:table_sub}{{4.19}{42}{โครงสร้างตาราง Subjects\relax }{figure.caption.50}{}}
\@writefile{lof}{\contentsline {figure}{\numberline {4.20}{\ignorespaces โครงสร้างตาราง Users\_status\relax }}{43}{figure.caption.51}\protected@file@percent }
\newlabel{fig:table_user_status}{{4.20}{43}{โครงสร้างตาราง Users\_status\relax }{figure.caption.51}{}}
\@writefile{lof}{\contentsline {figure}{\numberline {4.21}{\ignorespaces โครงสร้างตาราง Users\relax }}{43}{figure.caption.52}\protected@file@percent }
\newlabel{fig:table_users}{{4.21}{43}{โครงสร้างตาราง Users\relax }{figure.caption.52}{}}
\@writefile{toc}{\contentsline {section}{\numberline {4.7}ทดสอบการสร้างหน้าแอปพลิเคชันด้วยภาษา Dart ใน Flutter}{44}{section.4.7}\protected@file@percent }
\@writefile{lof}{\contentsline {figure}{\numberline {4.22}{\ignorespaces หน้าตัวอย่างสำหรับการสร้างแอปพลิเคชันด้วยภาษา Dart ใน Flutter\relax }}{44}{figure.caption.53}\protected@file@percent }
\newlabel{fig:flutter_example_page}{{4.22}{44}{หน้าตัวอย่างสำหรับการสร้างแอปพลิเคชันด้วยภาษา Dart ใน Flutter\relax }{figure.caption.53}{}}
\@writefile{lof}{\contentsline {figure}{\numberline {4.23}{\ignorespaces Source Code สำหรับการเขียนหน้าตัวอย่าง\relax }}{44}{figure.caption.54}\protected@file@percent }
\newlabel{fig:flutter_example_source_code}{{4.23}{44}{Source Code สำหรับการเขียนหน้าตัวอย่าง\relax }{figure.caption.54}{}}
\@writefile{toc}{\contentsline {section}{\numberline {4.8}สร้างหน้าแอปพลิเคชันตามการออกแบบส่วนประสานงานกับผู้ใช้}{45}{section.4.8}\protected@file@percent }
\@writefile{lof}{\contentsline {figure}{\numberline {4.24}{\ignorespaces หน้าแอปพลิเคชันสำหรับการเข้าสู่ระบบ และการสร้างบัญชีผู้ใช้งานใหม่\relax }}{45}{figure.caption.55}\protected@file@percent }
\newlabel{fig:login_part, register_part}{{4.24}{45}{หน้าแอปพลิเคชันสำหรับการเข้าสู่ระบบ และการสร้างบัญชีผู้ใช้งานใหม่\relax }{figure.caption.55}{}}
\@writefile{lof}{\contentsline {figure}{\numberline {4.25}{\ignorespaces หน้าแอปพลิเคชันสำหรับแสดงสถานะ และรายวิชาทั้งหมดตามหลักสูตรของผู้ใช้งาน\relax }}{46}{figure.caption.56}\protected@file@percent }
\newlabel{fig:allList_page}{{4.25}{46}{หน้าแอปพลิเคชันสำหรับแสดงสถานะ และรายวิชาทั้งหมดตามหลักสูตรของผู้ใช้งาน\relax }{figure.caption.56}{}}
\@writefile{lof}{\contentsline {figure}{\numberline {4.26}{\ignorespaces หน้าต่างแสดงเมนูเพิ่มเติม และตัวเลือกสำหรับเทอมและปีที่ต้องการจัดตารางเรียน\relax }}{46}{figure.caption.57}\protected@file@percent }
\newlabel{fig:year_term_selector}{{4.26}{46}{หน้าต่างแสดงเมนูเพิ่มเติม และตัวเลือกสำหรับเทอมและปีที่ต้องการจัดตารางเรียน\relax }{figure.caption.57}{}}
\@writefile{lof}{\contentsline {figure}{\numberline {4.27}{\ignorespaces หน้าแอปพลิเคชันสำหรับคำนวณการจัดตารางเรียนจากวิชาเรียน\relax }}{47}{figure.caption.58}\protected@file@percent }
\newlabel{fig:generate_section}{{4.27}{47}{หน้าแอปพลิเคชันสำหรับคำนวณการจัดตารางเรียนจากวิชาเรียน\relax }{figure.caption.58}{}}
\@writefile{lof}{\contentsline {figure}{\numberline {4.28}{\ignorespaces หน้าแอปพลิเคชันสำหรับตารางเรียนรวมที่ระบบได้จัดขึ้นมา\relax }}{48}{figure.caption.59}\protected@file@percent }
\newlabel{fig:all_timetable_page}{{4.28}{48}{หน้าแอปพลิเคชันสำหรับตารางเรียนรวมที่ระบบได้จัดขึ้นมา\relax }{figure.caption.59}{}}
\@writefile{toc}{\contentsline {section}{\numberline {4.9}ขั้นตอนการทำงานของแอปพลิเคชัน}{49}{section.4.9}\protected@file@percent }
\@writefile{toc}{\contentsline {subsection}{\numberline {4.9.1}ส่วนที่ 1 ส่วนของการสมัครสมาชิก และการเข้าสู่ระบบ ดังรูปที่ \ref  {fig:login_part, register_part}}{49}{subsection.4.9.1}\protected@file@percent }
\@writefile{lof}{\contentsline {figure}{\numberline {4.29}{\ignorespaces โครงสร้างตารางฐานข้อมูล Users, User Status และ Curriculumns\relax }}{49}{figure.caption.60}\protected@file@percent }
\newlabel{fig:db_register_and_login_part}{{4.29}{49}{โครงสร้างตารางฐานข้อมูล Users, User Status และ Curriculumns\relax }{figure.caption.60}{}}
\@writefile{lof}{\contentsline {figure}{\numberline {4.30}{\ignorespaces Object User\relax }}{50}{figure.caption.61}\protected@file@percent }
\newlabel{fig:user}{{4.30}{50}{Object User\relax }{figure.caption.61}{}}
\@writefile{toc}{\contentsline {subsection}{\numberline {4.9.2}ส่วนที่ 2 ส่วนของการแสดงรายวิชาที่ยังศึกษาไม่ผ่าน รายวิชาที่ศึกษาผ่านแล้ว และรายวิชาทั้งหมด ดังรูปที่ \ref  {fig:allList_page}}{51}{subsection.4.9.2}\protected@file@percent }
\@writefile{lof}{\contentsline {figure}{\numberline {4.31}{\ignorespaces โครงสร้างตารางฐานข้อมูล User Status และ Curriculumns\relax }}{51}{figure.caption.62}\protected@file@percent }
\newlabel{fig:db_allList_part}{{4.31}{51}{โครงสร้างตารางฐานข้อมูล User Status และ Curriculumns\relax }{figure.caption.62}{}}
\@writefile{lof}{\contentsline {figure}{\numberline {4.32}{\ignorespaces Object Show\_status\relax }}{51}{figure.caption.63}\protected@file@percent }
\newlabel{fig:show_status}{{4.32}{51}{Object Show\_status\relax }{figure.caption.63}{}}
\@writefile{lof}{\contentsline {figure}{\numberline {4.33}{\ignorespaces ER Diagram สำหรับการ Join ตาราง User\_status และ Curriculumns เพื่อใช้ในการดึงข้อมูล\relax }}{52}{figure.caption.64}\protected@file@percent }
\newlabel{fig:er_show_status}{{4.33}{52}{ER Diagram สำหรับการ Join ตาราง User\_status และ Curriculumns เพื่อใช้ในการดึงข้อมูล\relax }{figure.caption.64}{}}
\@writefile{lof}{\contentsline {figure}{\numberline {4.34}{\ignorespaces ตัวอย่างการเขียนโปรแกรมในส่วนของการ Join ตารางในส่วน Incompleted\relax }}{52}{figure.caption.65}\protected@file@percent }
\newlabel{fig:incompleted_join}{{4.34}{52}{ตัวอย่างการเขียนโปรแกรมในส่วนของการ Join ตารางในส่วน Incompleted\relax }{figure.caption.65}{}}
\@writefile{lof}{\contentsline {figure}{\numberline {4.35}{\ignorespaces ตัวอย่างการเขียนโปรแกรมในส่วนของการ Join ตารางในส่วน Completed\relax }}{52}{figure.caption.66}\protected@file@percent }
\newlabel{fig:completed_join}{{4.35}{52}{ตัวอย่างการเขียนโปรแกรมในส่วนของการ Join ตารางในส่วน Completed\relax }{figure.caption.66}{}}
\@writefile{lof}{\contentsline {figure}{\numberline {4.36}{\ignorespaces ตัวอย่างการเขียนโปรแกรมในส่วนของการ Join ตารางในส่วน All Subject\relax }}{52}{figure.caption.67}\protected@file@percent }
\newlabel{fig:all_subject_join}{{4.36}{52}{ตัวอย่างการเขียนโปรแกรมในส่วนของการ Join ตารางในส่วน All Subject\relax }{figure.caption.67}{}}
\@writefile{lof}{\contentsline {figure}{\numberline {4.37}{\ignorespaces ตัวอย่างการเขียนโปรแกรมในส่วนของการแสดงรายวิชาทั้งหมด โดยใช้วิธีการ Recursion\relax }}{53}{figure.caption.68}\protected@file@percent }
\newlabel{fig:recursion}{{4.37}{53}{ตัวอย่างการเขียนโปรแกรมในส่วนของการแสดงรายวิชาทั้งหมด โดยใช้วิธีการ Recursion\relax }{figure.caption.68}{}}
\@writefile{toc}{\contentsline {subsection}{\numberline {4.9.3}ส่วนที่ 3 ส่วนของการคำนวณตารางเรียน และแสดงภาพรวมของตาราง ดังรูปที่ \ref  {fig:generate_section}}{54}{subsection.4.9.3}\protected@file@percent }
\@writefile{lof}{\contentsline {figure}{\numberline {4.38}{\ignorespaces โครงสร้างตารางฐานข้อมูล User Status, Curriculumns, Subjects, Sections และ Credits\relax }}{54}{figure.caption.69}\protected@file@percent }
\newlabel{fig:db_generate_part}{{4.38}{54}{โครงสร้างตารางฐานข้อมูล User Status, Curriculumns, Subjects, Sections และ Credits\relax }{figure.caption.69}{}}
\@writefile{lof}{\contentsline {figure}{\numberline {4.39}{\ignorespaces Object ชนิด User\_timetable\relax }}{54}{figure.caption.70}\protected@file@percent }
\newlabel{fig:user_timetable}{{4.39}{54}{Object ชนิด User\_timetable\relax }{figure.caption.70}{}}
\@writefile{lof}{\contentsline {figure}{\numberline {4.40}{\ignorespaces ER Diagram สำหรับการ Join ตาราง User\_status Curriculumns, Subjects, Sections และ Credits เพื่อใช้ในการดึงข้อมูล\relax }}{55}{figure.caption.71}\protected@file@percent }
\newlabel{fig:er_user_timetable}{{4.40}{55}{ER Diagram สำหรับการ Join ตาราง User\_status Curriculumns, Subjects, Sections และ Credits เพื่อใช้ในการดึงข้อมูล\relax }{figure.caption.71}{}}
\@writefile{lof}{\contentsline {figure}{\numberline {4.41}{\ignorespaces ตัวอย่างการเขียนโปรแกรมในส่วนของการ Join ตารางในส่วน User\_timetable\relax }}{55}{figure.caption.72}\protected@file@percent }
\newlabel{fig:timetable_join}{{4.41}{55}{ตัวอย่างการเขียนโปรแกรมในส่วนของการ Join ตารางในส่วน User\_timetable\relax }{figure.caption.72}{}}
\@writefile{toc}{\contentsline {subsection}{\numberline {4.9.4}ส่วนที่ 4 ส่วนของการแสดงภาพรวมของตารางเรียนทั้งหมด ดังรูปที่ \ref  {fig:all_timetable_page}}{57}{subsection.4.9.4}\protected@file@percent }
\@writefile{lof}{\contentsline {figure}{\numberline {4.42}{\ignorespaces โครงสร้างตารางฐานข้อมูล User Status, Curriculumns, Subjects, Sections และ Credits\relax }}{57}{figure.caption.73}\protected@file@percent }
\newlabel{fig:db_all_timetable_part}{{4.42}{57}{โครงสร้างตารางฐานข้อมูล User Status, Curriculumns, Subjects, Sections และ Credits\relax }{figure.caption.73}{}}
\@writefile{toc}{\addvspace {15\p@ }}
\@writefile{toc}{\contentsline {chapter}{\numberline {5}สรุปผลการดำเนินงาน อุปสรรค และการพัฒนาในอนาคต}{59}{chapter.5}\protected@file@percent }
\@writefile{lof}{\addvspace {10\p@ }}
\@writefile{lot}{\addvspace {10\p@ }}
\newlabel{conclusion}{{5}{59}{สรุปผลการดำเนินงาน อุปสรรค และการพัฒนาในอนาคต}{chapter.5}{}}
\@writefile{toc}{\contentsline {section}{\numberline {5.1}สรุปผลดำเนินงาน}{59}{section.5.1}\protected@file@percent }
\@writefile{toc}{\contentsline {section}{\numberline {5.2}อุปสรรคในการดำเนินงาน}{60}{section.5.2}\protected@file@percent }
\@writefile{toc}{\contentsline {section}{\numberline {5.3}การนำมาพัฒนาต่อในอนาคต}{61}{section.5.3}\protected@file@percent }
\@writefile{lof}{\contentsline {figure}{\numberline {5.1}{\ignorespaces โลโก้ของแอปพลิเคชัน​วางแผนการเรียน​ของนักศึกษา\relax }}{61}{figure.caption.74}\protected@file@percent }
\newlabel{fig:spa_logo}{{5.1}{61}{โลโก้ของแอปพลิเคชัน​วางแผนการเรียน​ของนักศึกษา\relax }{figure.caption.74}{}}
\bibstyle{plain}
\bibdata{refs}
\bibcite{dart}{1}
\bibcite{online_demo}{2}
\bibcite{flutter}{3}
\bibcite{android}{4}
\bibcite{android_studio}{5}
\bibcite{sqlite}{6}
\bibcite{iOS}{7}
\bibcite{itc2007}{8}
\bibcite{java}{9}
\bibcite{threetrack_itc2007}{10}
\bibcite{constraint_solver_library}{11}
\bibcite{unitime}{12}
\@writefile{toc}{\addvspace {15\p@ }}
\@writefile{toc}{\contentsline {chapter}{รายการอ้างอิง}{62}{section*.75}\protected@file@percent }
\ttl@finishall
