\vspace {-0.5cm}
\nobreakspace {}\hfill \textnormal {หน้า}\par 
\select@language {thai}
\addvspace {10\p@ }
\addvspace {10\p@ }
\contentsline {figure}{\numberline {2.1}{\ignorespaces UniTime}}{7}{figure.caption.15}% 
\contentsline {figure}{\numberline {2.2}{\ignorespaces UniTime - Online Demo}}{10}{figure.caption.16}% 
\contentsline {figure}{\numberline {2.3}{\ignorespaces Android}}{12}{figure.caption.17}% 
\contentsline {figure}{\numberline {2.4}{\ignorespaces Android Studio}}{13}{figure.caption.18}% 
\contentsline {figure}{\numberline {2.5}{\ignorespaces iOS}}{15}{figure.caption.19}% 
\contentsline {figure}{\numberline {2.6}{\ignorespaces SQLite Database}}{17}{figure.caption.20}% 
\contentsline {figure}{\numberline {2.7}{\ignorespaces Dart}}{18}{figure.caption.21}% 
\contentsline {figure}{\numberline {2.8}{\ignorespaces Platform ของ Dart\relax }}{19}{figure.caption.22}% 
\contentsline {figure}{\numberline {2.9}{\ignorespaces Flutter}}{20}{figure.caption.23}% 
\contentsline {figure}{\numberline {2.10}{\ignorespaces Architectural Overview: platform channels ของ Flutter}}{20}{figure.caption.24}% 
\addvspace {10\p@ }
\contentsline {figure}{\numberline {3.1}{\ignorespaces ออกแบบหน้าแรกของแอปพลิเคชัน\relax }}{22}{figure.caption.25}% 
\contentsline {figure}{\numberline {3.2}{\ignorespaces ออกแบบหน้าต่างสำหรับแสดงรายวิชาทั้งหมดจากอินพุตของผู้ใช้\relax }}{23}{figure.caption.26}% 
\contentsline {figure}{\numberline {3.3}{\ignorespaces ออกแบบหน้าต่างสำหรับการจัดตารางเวลาเรียน\relax }}{23}{figure.caption.27}% 
\contentsline {figure}{\numberline {3.4}{\ignorespaces ออกแบบหน้าต่างสำหรับตารางปัจจุบัน\relax }}{24}{figure.caption.28}% 
\contentsline {figure}{\numberline {3.5}{\ignorespaces Plugin Dart และ Flutter ของโปรแกรม Android Studio\relax }}{25}{figure.caption.29}% 
\contentsline {figure}{\numberline {3.6}{\ignorespaces แบบระบบการทำงานของ UniTime\relax }}{25}{figure.caption.30}% 
\contentsline {figure}{\numberline {3.7}{\ignorespaces หน้าเว็บไซต์สำหรับ Server ของ UniTime\relax }}{28}{figure.caption.31}% 
\addvspace {10\p@ }
\contentsline {figure}{\numberline {4.1}{\ignorespaces หน้าแรกของแอปพลิเคชันสำหรับการเข้าสู่ระบบ และการสร้างบัญชีผู้ใช้งานใหม่\relax }}{29}{figure.caption.32}% 
\contentsline {figure}{\numberline {4.2}{\ignorespaces หน้าต่างสำหรับการสร้างบัญชีผู้ใช้งานใหม่\relax }}{30}{figure.caption.33}% 
\contentsline {figure}{\numberline {4.3}{\ignorespaces การทำงานของแอปพลิเคชัน ในส่วนของการแสดงรายชื่อวิชาทั้งหมด\relax }}{31}{figure.caption.34}% 
\contentsline {figure}{\numberline {4.4}{\ignorespaces การทำงานของแอปพลิเคชัน ในส่วนของเมนูเพิ่มเติม\relax }}{32}{figure.caption.35}% 
\contentsline {figure}{\numberline {4.5}{\ignorespaces การทำงานของแอปพลิเคชัน ในส่วนของการแสดงรายชื่อวิชาที่ผู้ใช้ได้ศึกษาผ่านแล้ว\relax }}{33}{figure.caption.36}% 
\contentsline {figure}{\numberline {4.6}{\ignorespaces การทำงานของแอปพลิเคชัน ในส่วนของการแสดงรายชื่อวิชาที่ผู้ใช้ยังศึกษาไม่ผ่าน\relax }}{33}{figure.caption.37}% 
\contentsline {figure}{\numberline {4.7}{\ignorespaces แสดงขั้นตอนการเข้าหน้าจัดตารางเรียน\relax }}{34}{figure.caption.38}% 
\contentsline {figure}{\numberline {4.8}{\ignorespaces แสดงขั้นตอนการจัดตารางเรียน\relax }}{35}{figure.caption.39}% 
\contentsline {figure}{\numberline {4.9}{\ignorespaces หน้าต่างสำหรับการเพิ่มรายวิชา\relax }}{35}{figure.caption.40}% 
\contentsline {figure}{\numberline {4.10}{\ignorespaces แสดงขั้นตอนการบันทึกตารางทั้งหมด\relax }}{36}{figure.caption.41}% 
\contentsline {figure}{\numberline {4.11}{\ignorespaces การทำงานของแอปพลิเคชัน ในส่วนของการแสดงรูปแบบของตารางทั้งหมดที่ผู้ใช้ได้บันทึกไว้\relax }}{37}{figure.caption.42}% 
\contentsline {figure}{\numberline {4.12}{\ignorespaces แสดงขั้นตอนการส่งออกไฟล์เป็น PDF\relax }}{38}{figure.caption.43}% 
\contentsline {figure}{\numberline {4.13}{\ignorespaces ER Diagram ความสัมพันธ์สำหรับฐานข้อมูลของแอปพลิเคชัน\relax }}{39}{figure.caption.44}% 
\contentsline {figure}{\numberline {4.14}{\ignorespaces ตารางสำหรับฐานข้อมูลของแอปพลิเคชัน\relax }}{40}{figure.caption.45}% 
\contentsline {figure}{\numberline {4.15}{\ignorespaces โครงสร้างตาราง Credits\relax }}{40}{figure.caption.46}% 
\contentsline {figure}{\numberline {4.16}{\ignorespaces โครงสร้างตาราง Curriculums\relax }}{41}{figure.caption.47}% 
\contentsline {figure}{\numberline {4.17}{\ignorespaces โครงสร้างตาราง Elective\_subjects\relax }}{41}{figure.caption.48}% 
\contentsline {figure}{\numberline {4.18}{\ignorespaces โครงสร้างตาราง Sections\relax }}{42}{figure.caption.49}% 
\contentsline {figure}{\numberline {4.19}{\ignorespaces โครงสร้างตาราง Subjects\relax }}{42}{figure.caption.50}% 
\contentsline {figure}{\numberline {4.20}{\ignorespaces โครงสร้างตาราง Users\_status\relax }}{43}{figure.caption.51}% 
\contentsline {figure}{\numberline {4.21}{\ignorespaces โครงสร้างตาราง Users\relax }}{43}{figure.caption.52}% 
\contentsline {figure}{\numberline {4.22}{\ignorespaces หน้าตัวอย่างสำหรับการสร้างแอปพลิเคชันด้วยภาษา Dart ใน Flutter\relax }}{44}{figure.caption.53}% 
\contentsline {figure}{\numberline {4.23}{\ignorespaces Source Code สำหรับการเขียนหน้าตัวอย่าง\relax }}{44}{figure.caption.54}% 
\contentsline {figure}{\numberline {4.24}{\ignorespaces หน้าแอปพลิเคชันสำหรับการเข้าสู่ระบบ และการสร้างบัญชีผู้ใช้งานใหม่\relax }}{45}{figure.caption.55}% 
\contentsline {figure}{\numberline {4.25}{\ignorespaces หน้าแอปพลิเคชันสำหรับแสดงสถานะ และรายวิชาทั้งหมดตามหลักสูตรของผู้ใช้งาน\relax }}{46}{figure.caption.56}% 
\contentsline {figure}{\numberline {4.26}{\ignorespaces หน้าต่างแสดงเมนูเพิ่มเติม และตัวเลือกสำหรับเทอมและปีที่ต้องการจัดตารางเรียน\relax }}{46}{figure.caption.57}% 
\contentsline {figure}{\numberline {4.27}{\ignorespaces หน้าแอปพลิเคชันสำหรับคำนวณการจัดตารางเรียนจากวิชาเรียน\relax }}{47}{figure.caption.58}% 
\contentsline {figure}{\numberline {4.28}{\ignorespaces หน้าแอปพลิเคชันสำหรับตารางเรียนรวมที่ระบบได้จัดขึ้นมา\relax }}{48}{figure.caption.59}% 
\contentsline {figure}{\numberline {4.29}{\ignorespaces โครงสร้างตารางฐานข้อมูล Users, User Status และ Curriculumns\relax }}{49}{figure.caption.60}% 
\contentsline {figure}{\numberline {4.30}{\ignorespaces Object User\relax }}{50}{figure.caption.61}% 
\contentsline {figure}{\numberline {4.31}{\ignorespaces โครงสร้างตารางฐานข้อมูล User Status และ Curriculumns\relax }}{51}{figure.caption.62}% 
\contentsline {figure}{\numberline {4.32}{\ignorespaces Object Show\_status\relax }}{51}{figure.caption.63}% 
\contentsline {figure}{\numberline {4.33}{\ignorespaces ER Diagram สำหรับการ Join ตาราง User\_status และ Curriculumns เพื่อใช้ในการดึงข้อมูล\relax }}{52}{figure.caption.64}% 
\contentsline {figure}{\numberline {4.34}{\ignorespaces ตัวอย่างการเขียนโปรแกรมในส่วนของการ Join ตารางในส่วน Incompleted\relax }}{52}{figure.caption.65}% 
\contentsline {figure}{\numberline {4.35}{\ignorespaces ตัวอย่างการเขียนโปรแกรมในส่วนของการ Join ตารางในส่วน Completed\relax }}{52}{figure.caption.66}% 
\contentsline {figure}{\numberline {4.36}{\ignorespaces ตัวอย่างการเขียนโปรแกรมในส่วนของการ Join ตารางในส่วน All Subject\relax }}{52}{figure.caption.67}% 
\contentsline {figure}{\numberline {4.37}{\ignorespaces ตัวอย่างการเขียนโปรแกรมในส่วนของการแสดงรายวิชาทั้งหมด โดยใช้วิธีการ Recursion\relax }}{53}{figure.caption.68}% 
\contentsline {figure}{\numberline {4.38}{\ignorespaces โครงสร้างตารางฐานข้อมูล User Status, Curriculumns, Subjects, Sections และ Credits\relax }}{54}{figure.caption.69}% 
\contentsline {figure}{\numberline {4.39}{\ignorespaces Object ชนิด User\_timetable\relax }}{54}{figure.caption.70}% 
\contentsline {figure}{\numberline {4.40}{\ignorespaces ER Diagram สำหรับการ Join ตาราง User\_status Curriculumns, Subjects, Sections และ Credits เพื่อใช้ในการดึงข้อมูล\relax }}{55}{figure.caption.71}% 
\contentsline {figure}{\numberline {4.41}{\ignorespaces ตัวอย่างการเขียนโปรแกรมในส่วนของการ Join ตารางในส่วน User\_timetable\relax }}{55}{figure.caption.72}% 
\contentsline {figure}{\numberline {4.42}{\ignorespaces โครงสร้างตารางฐานข้อมูล User Status, Curriculumns, Subjects, Sections และ Credits\relax }}{57}{figure.caption.73}% 
\addvspace {10\p@ }
\contentsline {figure}{\numberline {5.1}{\ignorespaces โลโก้ของแอปพลิเคชัน​วางแผนการเรียน​ของนักศึกษา\relax }}{61}{figure.caption.74}% 
\contentsfinish 
